Regressão Linear
…
# Make a data frame of predicted probabilities
prediction_data <- explanatory_data %>% 
  mutate(
    has_churned = predict(
      mdl_churn_vs_relationship, 
      explanatory_data,
      type = 'response'
    )
  )

# See the result
prediction_data

## # A tibble: 23 x 2
##    time_since_first_purchase has_churned
##                        <dbl>       <dbl>
##  1                     -1.5        0.626
##  2                     -1.25       0.605
##  3                     -1          0.584
##  4                     -0.75       0.562
##  5                     -0.5        0.540
##  6                     -0.25       0.518
##  7                      0          0.496
##  8                      0.25       0.474
##  9                      0.5        0.452
## 10                      0.75       0.430
## # ... with 13 more rows
…
When explaining your results to a non-technical audience, you may wish to side-step talking about probabilities and simply explain the most likely outcome. That is, rather than saying there is a 60% chance of a customer churning, you say that the most likely outcome is that the customer will churn. The trade-off here is easier interpretation at the cost of nuance.

# Update the data frame
prediction_data <- explanatory_data %>% 
  mutate(   
    has_churned = predict(mdl_churn_vs_relationship, explanatory_data, type = "response"),
    # Add the most likely churn outcome
    most_likely_outcome = round(has_churned)
  )

# See the result
prediction_data

## # A tibble: 23 x 3
##    time_since_first_purchase has_churned most_likely_outcome
##                        <dbl>       <dbl>               <dbl>
##  1                     -1.5        0.626                   1
##  2                     -1.25       0.605                   1
##  3                     -1          0.584                   1
##  4                     -0.75       0.562                   1
##  5                     -0.5        0.540                   1
##  6                     -0.25       0.518                   1
##  7                      0          0.496                   0
##  8                      0.25       0.474                   0
##  9                      0.5        0.452                   0
## 10                      0.75       0.430                   0
## # ... with 13 more rows
…
# Update the data frame
prediction_data <- explanatory_data %>% 
  mutate(   
    has_churned = predict(
      mdl_churn_vs_relationship, explanatory_data, 
      type = "response"
    ),
    # Add the odds ratio
    odds_ratio = has_churned/ (1-has_churned)
  )

# See the result
prediction_data

## # A tibble: 23 x 3
##    time_since_first_purchase has_churned odds_ratio
##                        <dbl>       <dbl>      <dbl>
##  1                     -1.5        0.626      1.68 
##  2                     -1.25       0.605      1.53 
##  3                     -1          0.584      1.40 
##  4                     -0.75       0.562      1.29 
##  5                     -0.5        0.540      1.18 
##  6                     -0.25       0.518      1.08 
##  7                      0          0.496      0.985
##  8                      0.25       0.474      0.901
##  9                      0.5        0.452      0.825
## 10                      0.75       0.430      0.755
## # ... with 13 more rows
…
# Update the data frame
prediction_data <- explanatory_data %>% 
  mutate(   
    has_churned = predict(mdl_churn_vs_relationship, explanatory_data, type = "response"),
    odds_ratio = has_churned / (1 - has_churned),
    # Add the log odds ratio from odds_ratio
    log_odds_ratio = log(odds_ratio),
    # Add the log odds ratio using predict() "dont use type"
    log_odds_ratio2 = predict(mdl_churn_vs_relationship, explanatory_data)
  )

# See the result
prediction_data

## # A tibble: 23 x 5
##    time_since_first_purch~ has_churned odds_ratio log_odds_ratio log_odds_ratio2
##                      <dbl>       <dbl>      <dbl>          <dbl>           <dbl>
##  1                   -1.5        0.626      1.68          0.517           0.517 
##  2                   -1.25       0.605      1.53          0.428           0.428 
##  3                   -1          0.584      1.40          0.340           0.340 
##  4                   -0.75       0.562      1.29          0.251           0.251 
##  5                   -0.5        0.540      1.18          0.162           0.162 
##  6                   -0.25       0.518      1.08          0.0735          0.0735
##  7                    0          0.496      0.985        -0.0152         -0.0152
##  8                    0.25       0.474      0.901        -0.104          -0.104 
##  9                    0.5        0.452      0.825        -0.193          -0.193 
## 10                    0.75       0.430      0.755        -0.281          -0.281 
## # ... with 13 more rows
…
